…
    ## date created (size, mb): 2021-10-05 10:31:26 (0.912)

    ## file min/max dates: 1999-09-01 / 2021-09-30

``` r
weather_nest = 
  nest(weather_df, data = date:tmin)

weather_nest %>% filter(name=="CentralPark_NY") %>% 
  pull(data)
```

    ## [[1]]
    ## # A tibble: 365 × 4
    ##    date        prcp  tmax  tmin
    ##    <date>     <dbl> <dbl> <dbl>
    ##  1 2017-01-01     0   8.9   4.4
    ##  2 2017-01-02    53   5     2.8
    ##  3 2017-01-03   147   6.1   3.9
    ##  4 2017-01-04     0  11.1   1.1
    ##  5 2017-01-05     0   1.1  -2.7
    ##  6 2017-01-06    13   0.6  -3.8
    ##  7 2017-01-07    81  -3.2  -6.6
    ##  8 2017-01-08     0  -3.8  -8.8
    ##  9 2017-01-09     0  -4.9  -9.9
    ## 10 2017-01-10     0   7.8  -6  
    ## # … with 355 more rows

``` r
unnest(weather_nest, cols = data)
```

    ## # A tibble: 1,095 × 6
    ##    name           id          date        prcp  tmax  tmin
    ##    <chr>          <chr>       <date>     <dbl> <dbl> <dbl>
    ##  1 CentralPark_NY USW00094728 2017-01-01     0   8.9   4.4
    ##  2 CentralPark_NY USW00094728 2017-01-02    53   5     2.8
    ##  3 CentralPark_NY USW00094728 2017-01-03   147   6.1   3.9
    ##  4 CentralPark_NY USW00094728 2017-01-04     0  11.1   1.1
    ##  5 CentralPark_NY USW00094728 2017-01-05     0   1.1  -2.7
    ##  6 CentralPark_NY USW00094728 2017-01-06    13   0.6  -3.8
    ##  7 CentralPark_NY USW00094728 2017-01-07    81  -3.2  -6.6
    ##  8 CentralPark_NY USW00094728 2017-01-08     0  -3.8  -8.8
    ##  9 CentralPark_NY USW00094728 2017-01-09     0  -4.9  -9.9
    ## 10 CentralPark_NY USW00094728 2017-01-10     0   7.8  -6  
    ## # … with 1,085 more rows
…
